Tang_Nano_Implemenation/Tang_Nano_CPU/src/gowin_dp/DP.vcd
$date
  Sat Feb 08 11:06:26 2020
$end
$version
  GHDL v0
$end
$timescale
  1 fs
$end
$scope module standard $end
$upscope $end
$scope module std_logic_1164 $end
$upscope $end
$scope module gowin_dp_tb $end
$var reg 1 ! clka $end
$var reg 1 " ocea $end
$var reg 1 # cea $end
$var reg 1 $ reseta $end
$var reg 1 % wrea $end
$var reg 1 & clkb $end
$var reg 1 ' oceb $end
$var reg 1 ( ceb $end
$var reg 1 ) resetb $end
$var reg 1 * wreb $end
$var reg 8 + douta[7:0] $end
$var reg 8 , doutb[7:0] $end
$var reg 8 - dina[7:0] $end
$var reg 8 . dinb[7:0] $end
$var reg 9 / ada[8:0] $end
$var reg 9 0 adb[8:0] $end
$scope module mapping $end
$var reg 8 1 douta[7:0] $end
$var reg 8 2 doutb[7:0] $end
$var reg 1 3 clka $end
$var reg 1 4 ocea $end
$var reg 1 5 cea $end
$var reg 1 6 reseta $end
$var reg 1 7 wrea $end
$var reg 1 8 clkb $end
$var reg 1 9 oceb $end
$var reg 1 : ceb $end
$var reg 1 ; resetb $end
$var reg 1 < wreb $end
$var reg 9 = ada[8:0] $end
$var reg 8 > dina[7:0] $end
$var reg 9 ? adb[8:0] $end
$var reg 8 @ dinb[7:0] $end
$var reg 1 A gw_gnd $end
$var reg 3 B bram_dp_0_blksel_i[2:0] $end
$var reg 14 C bram_dp_0_ada_i[13:0] $end
$var reg 16 D bram_dp_0_dia_i[15:0] $end
$var reg 14 E bram_dp_0_adb_i[13:0] $end
$var reg 16 F bram_dp_0_dib_i[15:0] $end
$var reg 16 G bram_dp_0_doa_o[15:0] $end
$var reg 16 H bram_dp_0_dob_o[15:0] $end
$scope module bram_dp_0 $end
$upscope $end
$upscope $end
$upscope $end
$enddefinitions $end
#0
0!
U"
U#
U$
U%
0&
1'
1(
0)
1*
bUUUUUUUU +
bUUUUUUUU ,
bUUUUUUUU -
b00000001 .
bUUUUUUUUU /
b100000000 0
bUUUUUUUU 1
bUUUUUUUU 2
03
U4
U5
U6
U7
08
19
1:
0;
1<
bUUUUUUUUU =
bUUUUUUUU >
b100000000 ?
b00000001 @
0A
b000 B
b00UUUUUUUUU000 C
b00000000UUUUUUUU D
b00100000000000 E
b0000000000000001 F
bUUUUUUUUUUUUUUUU G
bUUUUUUUUUUUUUUUU H
#1000000
1!
1&
13
18
#2000000
0!
0&
b00000110 .
b100000001 0
03
08
b100000001 ?
b00000110 @
b00100000001000 E
b0000000000000110 F
#3000000
1!
1&
13
18
#4000000
0!
0&
b00010000 .
b000000000 0
03
08
b000000000 ?
b00010000 @
b00000000000000 E
b0000000000010000 F
#5000000
1!
1&
13
18
#6000000
0!
0&
b10000000 .
b000000001 0
03
08
b000000001 ?
b10000000 @
b00000000001000 E
b0000000010000000 F
#7000000
1!
1&
13
18
#8000000
0!
0&
b00010000 .
b000000010 0
03
08
b000000010 ?
b00010000 @
b00000000010000 E
b0000000000010000 F
#9000000
1!
1&
13
18
#10000000
0!
0&
b10000001 .
b000000011 0
03
08
b000000011 ?
b10000001 @
b00000000011000 E
b0000000010000001 F
#11000000
1!
1&
13
18
#12000000
0!
0&
b00010001 .
b000000100 0
03
08
b000000100 ?
b00010001 @
b00000000100000 E
b0000000000010001 F
#13000000
1!
1&
13
18
#14000000
0!
0&
b10000110 .
b000000101 0
03
08
b000000101 ?
b10000110 @
b00000000101000 E
b0000000010000110 F
#15000000
1!
1&
13
18
#16000000
0!
0&
b11001001 .
b000000110 0
03
08
b000000110 ?
b11001001 @
b00000000110000 E
b0000000011001001 F
#17000000
1!
1&
13
18
#18000000
0!
0&
b10000011 .
b000000111 0
03
08
b000000111 ?
b10000011 @
b00000000111000 E
b0000000010000011 F
#19000000
1!
1&
13
18
#20000000
0!
0&
b11001001 .
b000001000 0
03
08
b000001000 ?
b11001001 @
b00000001000000 E
b0000000011001001 F
#21000000
1!
1&
13
18
#22000000
0!
0&
b10000000 .
b000001001 0
03
08
b000001001 ?
b10000000 @
b00000001001000 E
b0000000010000000 F
#23000000
1!
1&
13
18
#24000000
0!
0&
b11001001 .
b000001010 0
03
08
b000001010 ?
b11001001 @
b00000001010000 E
b0000000011001001 F
#25000000
1!
1&
13
18
#26000000
0!
0&
b10000011 .
b000001011 0
03
08
b000001011 ?
b10000011 @
b00000001011000 E
b0000000010000011 F
#27000000
1!
1&
13
18
#28000000
0!
0&
b11001001 .
b000001100 0
03
08
b000001100 ?
b11001001 @
b00000001100000 E
b0000000011001001 F
#29000000
1!
1&
13
18
#30000000
0!
0&
b10000001 .
b000001101 0
03
08
b000001101 ?
b10000001 @
b00000001101000 E
b0000000010000001 F
#31000000
1!
1&
13
18
#32000000
0!
0&
b10000010 .
b000001110 0
03
08
b000001110 ?
b10000010 @
b00000001110000 E
b0000000010000010 F
#33000000
1!
1&
0*
13
18
0<
#34000000
#35000000
0!
0&
03
08
#36000000
1!
1&
b000000001 0
13
18
b000000001 ?
b00000000001000 E
#37000000
0!
0&
03
08
#38000000
1!
1&
b000000010 0
13
18
b000000010 ?
b00000000010000 E
#39000000
0!
0&
03
08
#40000000
1!
1&
b000000011 0
13
18
b000000011 ?
b00000000011000 E
#41000000
0!
0&
03
08
#42000000
1!
1&
b000000100 0
13
18
b000000100 ?
b00000000100000 E
#43000000
0!
0&
03
08
#44000000
1!
1&
b000000101 0
13
18
b000000101 ?
b00000000101000 E
